{
    "aqua1": {
        "decorations": {
            "echinodorus5": {
                "scale": 0.885,
                "left": "7px",
                "bottom": "29px"
            },
            "echinodorus6": {
                "scale": "-0.6 0.6",
                "left": "28px",
                "bottom": "26px"
            },
            "echinodorus7": {
                "scale": 0.72,
                "left": "6px",
                "bottom": "26px"
            },
            "alternanthera1": {
                "scale": 0.7,
                "left": "220px",
                "bottom": "26px"
            }
        }
    },
    "aqua2": {
        "decorations": {
            "cryptocoryne3": {
                "scale": 0.85,
                "left": "136px",
                "bottom": "32px"
            },
            "cryptocoryne2": {
                "scale": 0.6,
                "left": "75px",
                "bottom": "26px"
            },
            "cryptocoryne4": {
                "scale": "-0.35 0.35",
                "left": "19px",
                "bottom": "27px"
            }
        }
    }
}
