<svg xmlns="http://www.w3.org/2000/svg" viewBox="0 0 140 270">
<defs>
<filter id="blur1">
<feGaussianBlur in="SourceGraphic" stdDeviation=".1"/>
</filter>
</defs>
<g filter="url(#blur1)">
<rect fill="black" x="75" y="39" width="28" height="20" rx="3" ry="3"/>
<path stroke-width=".6" stroke="white" d="M76.7,56.7v-14q0,-2 2,-2h22"/>
<path fill="none" stroke-width="2" stroke="#f6f6f6" stroke-linecap="round" d="M100,50v172q0,7 -7,7h-8"/>
<circle cx="75" cy="229" r="3.5"/>
<circle cx="15" cy="229" r="3.5"/>
<path stroke-width="3" stroke="#9fff9f" d="M85,229h-80"/>
<path stroke-width="1" stroke="#4f7f4f" d="M85,230h-80"/>
</g>
</svg>
