<svg xmlns="http://www.w3.org/2000/svg">
<g stroke-width="0">
<rect opacity=".05" fill="#309000" x="10" y="60" width="240" height="200" />
<rect opacity=".1" fill="#00007f" x="10" y="90" width="240" height="170" />
<path opacity=".1" stroke-width="7" fill="none" stroke="#309000" d="M10,60v200h240v-200" />
</g>
</svg>
