<svg width="180px" height="200px" xmlns="http://www.w3.org/2000/svg">
<defs>
<linearGradient id="silver" gradientTransform="rotate(90)">
<stop offset="0" stop-color="#2f2f2f"/>
<stop offset=".15" stop-color="white"/>
<stop offset=".35" stop-color="black"/>
<stop offset=".45" stop-color="white"/>
<stop offset=".55" stop-color="white"/>
<stop offset=".8" stop-color="#2f2f2f"/>
</linearGradient>
<linearGradient id="gold" gradientTransform="rotate(90)">
<stop offset="0" stop-color="#2f0000"/>
<stop offset=".15" stop-color="#fff000"/>
<stop offset=".35" stop-color="black"/>
<stop offset=".45" stop-color="#ffffbf"/>
<stop offset=".55" stop-color="#ffffaf"/>
<stop offset=".8" stop-color="#2f0000"/>
</linearGradient>
<linearGradient id="black" gradientTransform="rotate(90)">
<stop offset=".1" stop-color="black"/>
<stop offset=".50" stop-color="silver"/>
<stop offset=".8" stop-color="black"/>
</linearGradient>
<symbol id="mainLighting">
<rect x="0" width="150" height="7" fill="url(#black)" rx="2" ry="2"/>
<rect x="10" width="130" height="7" fill="url(#silver)"/>
<rect x="18" y="6" width="114" height="1" fill="silver"/>
</symbol>
</defs>
<g fill="none" stroke="grey" stroke-linejoin="round">
<path stroke-width="2" d="M5,75v-47q0,-5 5,-5h160q5,0 5,5v47"/>
<path stroke-width="4" stroke-opacity=".5" d="M4.55,70v-12h8v12 M167.5,70v-12h8v12"/>
</g>
<use x="15" y="19" href="#mainLighting"/>
</svg>
