<svg xmlns="http://www.w3.org/2000/svg" viewBox="0 0 380 270">
<defs>
<radialGradient id="light">
<stop offset="50%" stop-color="#ffbf9f" stop-opacity="66%"/>
<stop offset="100%" stop-color="#ffbf9f" stop-opacity="0%" />
</radialGradient>
<mask id="water">
<rect x="0" y="91" width="100%" height="100%" fill="white"/>
</mask>
<pattern id="colorLedRow" patternUnits="userSpaceOnUse" x="0" y="0" width="11" height="1">
<rect x="0" y="0" width="2" height="2" fill="orangered"/>
<rect x="2" y="0" width="1" height="2" fill="#a05770"/>
<rect x="3" y="0" width="2" height="2" fill="royalblue"/>
<rect x="5" y="0" width="1" height="2" fill="#1dbc65"/>
<rect x="6" y="0" width="2" height="2" fill="lime"/>
<rect x="8" y="0" width="1" height="2" fill="#66b500"/>
<rect x="9" y="0" width="2" height="2" fill="orangered"/>
</pattern>
<symbol id="mainLighting">
<rect x="18" y="12" width="264" height="1" fill="url('#colorLedRow')"/>
</symbol>
</defs>
<use x="40" y="13" href="#mainLighting"/>
<circle cx="50%" cy="50%" r="50%" mask="url('#water')" fill="url('#light')"/>
</svg>
